m,1,2,3,4,5,6,7,8,9,10
1,0.0,728.92,3797.9,212.18,374.89,577.4,499.16,645.77,1731.06,406.7
2,,0.0,3072.89,935.89,1100.83,1303.9,1225.35,1372.09,1005.29,490.93
3,,,0.0,4001.04,4170.3,4372.79,4294.95,4440.72,2513.42,3396.42
4,,,,0.0,171.37,375.25,296.25,443.5,1934.09,609.75
5,,,,,0.0,204.52,125.6,272.93,2102.86,779.4
6,,,,,,0.0,79.4,69.59,2306.38,983.02
7,,,,,,,0.0,147.87,2227.56,904.37
8,,,,,,,,0.0,2374.55,1050.92
9,,,,,,,,,0.0,1327.58
10,,,,,,,,,,0.0
